<?xml version="1.0" encoding="UTF-8" standalone="no"?>
<!-- Created with Inkscape (http://www.inkscape.org/) -->

<svg
   xmlns:dc="http://purl.org/dc/elements/1.1/"
   xmlns:cc="http://creativecommons.org/ns#"
   xmlns:rdf="http://www.w3.org/1999/02/22-rdf-syntax-ns#"
   xmlns:svg="http://www.w3.org/2000/svg"
   xmlns="http://www.w3.org/2000/svg"
   xmlns:sodipodi="http://sodipodi.sourceforge.net/DTD/sodipodi-0.dtd"
   xmlns:inkscape="http://www.inkscape.org/namespaces/inkscape"
   width="300mm"
   height="300mm"
   viewBox="0 0 300 300"
   version="1.1"
   id="svg8"
   inkscape:version="0.92.4 (unknown)"
   sodipodi:docname="mockup_A_1.3.svg">
  <defs
     id="defs2" />
  <sodipodi:namedview
     id="base"
     pagecolor="#ffffff"
     bordercolor="#666666"
     borderopacity="1.0"
     inkscape:pageopacity="0.0"
     inkscape:pageshadow="2"
     inkscape:zoom="0.7"
     inkscape:cx="341.53894"
     inkscape:cy="686.28391"
     inkscape:document-units="mm"
     inkscape:current-layer="layer1"
     showgrid="true"
     inkscape:snap-center="true"
     inkscape:window-width="2560"
     inkscape:window-height="1049"
     inkscape:window-x="1920"
     inkscape:window-y="0"
     inkscape:window-maximized="1"
     inkscape:snap-object-midpoints="false"
     inkscape:snap-bbox="true"
     inkscape:bbox-nodes="false"
     inkscape:snap-nodes="true"
     inkscape:snap-others="true">
    <inkscape:grid
       type="xygrid"
       id="grid4518"
       units="mm"
       spacingx="0.99999999"
       spacingy="0.99999999"
       dotted="true" />
    <inkscape:grid
       type="xygrid"
       id="grid4520"
       units="mm"
       spacingx="9.9999999"
       spacingy="9.9999999" />
  </sodipodi:namedview>
  <metadata
     id="metadata5">
    <rdf:RDF>
      <cc:Work
         rdf:about="">
        <dc:format>image/svg+xml</dc:format>
        <dc:type
           rdf:resource="http://purl.org/dc/dcmitype/StillImage" />
        <dc:title></dc:title>
      </cc:Work>
    </rdf:RDF>
  </metadata>
  <g
     inkscape:label="Layer 1"
     inkscape:groupmode="layer"
     id="layer1"
     transform="translate(0,3)">
    <circle
       style="fill:none;fill-opacity:1;stroke:#000000;stroke-width:3.20000005;stroke-miterlimit:4;stroke-dasharray:none;stroke-opacity:1"
       id="path4699"
       cx="150"
       cy="147"
       r="48.387096" />
    <path
       id="path4701"
       d="m 31.189334,143.18934 c 3.451298,0 6.603415,-1.57022 8.691711,-4.1432 0.30893,-0.38061 -0.02794,-0.93667 -0.505356,-0.84576 -5.428708,1.03388 -10.414039,-3.12846 -10.414039,-8.60853 0,-3.1567 1.689852,-6.05951 4.43631,-7.62247 0.423361,-0.24093 0.316886,-0.88278 -0.164167,-0.97164 a 11.283571,11.283571 0 0 0 -2.044459,-0.18707 C 25.012956,120.81067 20,125.81576 20,132 c 0,6.17639 5.005087,11.18934 11.189334,11.18934 z"
       inkscape:connector-curvature="0"
       style="stroke-width:0.04370834" />
    <path
       id="path4712"
       d="m 30.000729,91.375003 c -3.09976,0 -5.62527,2.52539 -5.62527,5.625 0,3.099617 2.52551,5.624997 5.62527,5.624997 3.09976,0 5.62527,-2.52538 5.62527,-5.624997 0,-3.09961 -2.52551,-5.625 -5.62527,-5.625 z m 14.43821,4.7168 -5.5491,-2.77148 1.96298,-5.88282 c 0.26369,-0.79687 -0.49221,-1.55273 -1.28326,-1.28319 l -5.8831,1.96288 -2.77748,-5.55469 c -0.37502,-0.75 -1.44148,-0.75 -1.8165,0 l -2.77161,5.54883 -5.88896,-1.96289 c -0.79692,-0.26367 -1.55281,0.49219 -1.28327,1.2832 l 1.96298,5.88282 -5.54909,2.77734 c -0.75004,0.375 -0.75004,1.44141 0,1.81641 l 5.54909,2.771487 -1.96298,5.88867 c -0.26368,0.79687 0.49221,1.55273 1.28327,1.2832 l 5.88309,-1.9629 2.77163,5.54884 c 0.37501,0.74999 1.44147,0.74999 1.81649,0 l 2.77162,-5.54884 5.88309,1.9629 c 0.79692,0.26367 1.55282,-0.49219 1.28327,-1.2832 l -1.96298,-5.88282 5.54909,-2.771477 c 0.76176,-0.38086 0.76176,-1.44727 0.0117,-1.82227 z m -9.13521,6.210937 c -2.92398,2.92383 -7.68202,2.92383 -10.60599,0 -2.92397,-2.923827 -2.92397,-7.681647 0,-10.605467 2.92397,-2.92383 7.68201,-2.92383 10.60599,0 2.92396,2.92382 2.92396,7.68164 0,10.605467 z"
       inkscape:connector-curvature="0"
       style="stroke-width:0.05859517" />
    <path
       id="path4723"
       d="m 133.04367,152.37872 -2.03812,-1.17585 1.56779,-0.42209 c 0.49445,-0.13265 0.78992,-0.6452 0.65726,-1.13966 l -0.2412,-0.89846 c -0.13266,-0.49445 -0.6452,-0.78993 -1.13966,-0.65727 l -4.2692,1.14569 -3.85313,-2.23108 3.8471,-2.22505 4.2692,1.1457 c 0.49446,0.13265 1.007,-0.16281 1.13966,-0.65727 l 0.2412,-0.89846 c 0.13267,-0.49445 -0.16281,-1.00699 -0.65726,-1.13966 l -1.56779,-0.4221 2.03812,-1.17584 c 0.44622,-0.25929 0.59697,-0.82609 0.34371,-1.27231 l -0.93464,-1.61603 c -0.25929,-0.44621 -0.8261,-0.59696 -1.27232,-0.3437 l -2.03812,1.17584 0.42209,-1.56779 c 0.13267,-0.49446 -0.1628,-1.007 -0.65726,-1.13966 l -0.89846,-0.24119 c -0.49445,-0.13265 -1.007,0.1628 -1.13966,0.65725 l -1.14569,4.2692 -3.7868,2.18284 v -4.67321 l 3.23808,-3.23808 c 0.37385,-0.37385 0.37385,-0.98891 0,-1.36276 l -0.68139,-0.68138 c -0.37385,-0.37385 -0.98891,-0.37385 -1.36277,0 l -1.19392,1.1879 v -2.4361 c 0,-0.53063 -0.43416,-0.96478 -0.96479,-0.96478 h -1.92959 c -0.53063,0 -0.96479,0.43415 -0.96479,0.96478 v 2.4361 l -1.1879,-1.1879 c -0.37385,-0.37385 -0.98891,-0.37385 -1.36276,0 l -0.68742,0.68138 c -0.37988,0.37385 -0.37988,0.98891 0,1.36276 l 3.23808,3.23808 v 4.67321 l -3.7868,-2.18284 -1.14569,-4.2692 c -0.13266,-0.49445 -0.6452,-0.78992 -1.13966,-0.65725 l -0.89846,0.24119 c -0.49446,0.13265 -0.78992,0.6452 -0.65727,1.13966 l 0.4221,1.56779 -2.03812,-1.17584 c -0.44622,-0.25929 -1.01303,-0.10253 -1.27232,0.3437 l -0.93464,1.60999 c -0.25929,0.44622 -0.10251,1.01304 0.34371,1.27233 l 2.03812,1.17583 -1.56779,0.42209 c -0.50048,0.13265 -0.79595,0.64521 -0.66329,1.1457 l 0.2412,0.89846 c 0.13266,0.49446 0.6452,0.78992 1.13966,0.65727 l 4.2692,-1.1457 3.8471,2.22505 -3.8471,2.22505 -4.2692,-1.14569 c -0.49446,-0.13265 -1.007,0.16281 -1.13966,0.65726 l -0.2412,0.89846 c -0.13266,0.49447 0.16281,1.00701 0.65726,1.13966 l 1.56779,0.42211 -2.03812,1.18187 c -0.44622,0.25928 -0.59697,0.8261 -0.34371,1.27231 l 0.93464,1.61603 c 0.25929,0.44622 0.82611,0.59695 1.27232,0.3437 l 2.03812,-1.17583 -0.42209,1.56779 c -0.13267,0.49445 0.1628,1.00698 0.65726,1.13964 l 0.89846,0.24121 c 0.49446,0.13265 1.007,-0.16282 1.13966,-0.65727 l 1.14569,-4.26919 3.7868,-2.18285 v 4.67321 l -3.23808,3.23808 c -0.37988,0.37385 -0.37988,0.98891 0,1.36276 l 0.68139,0.68139 c 0.37385,0.37386 0.98891,0.37386 1.36277,0 l 1.18789,-1.18791 v 2.43008 c 0,0.53064 0.43416,0.96479 0.9648,0.96479 h 1.92958 c 0.53063,0 0.96479,-0.43415 0.96479,-0.96479 v -2.4361 l 1.1879,1.1879 c 0.37385,0.37385 0.98891,0.37385 1.36276,0 l 0.68139,-0.68138 c 0.37385,-0.37386 0.37385,-0.98891 0,-1.36278 l -3.21999,-3.23807 v -4.6732 l 3.7868,2.18283 1.14569,4.2692 c 0.13266,0.49446 0.64521,0.78992 1.13966,0.65726 l 0.89846,-0.24119 c 0.49446,-0.13265 0.78993,-0.64521 0.65726,-1.13966 l -0.42209,-1.56779 2.03812,1.17583 c 0.44622,0.25929 1.01303,0.10253 1.27232,-0.3437 l 0.93464,-1.61603 c 0.25929,-0.44017 0.10854,-1.01302 -0.33768,-1.26627 z"
       inkscape:connector-curvature="0"
       style="stroke-width:0.06029942" />
    <path
       id="path4745"
       d="m 160.19999,115.62188 c 0.19219,-0.50156 0.3,-1.05 0.3,-1.62188 0,-2.48437 -2.01563,-4.5 -4.5,-4.5 -0.92344,0 -1.78594,0.28125 -2.49844,0.75938 -1.29844,-2.25 -3.72188,-3.75938 -6.50157,-3.75938 -4.14375,0 -7.5,3.35625 -7.5,7.5 0,0.12657 0.005,0.25313 0.009,0.37969 -2.625,0.92344 -4.50937,3.42657 -4.50937,6.37032 0,3.72656 3.02344,6.75 6.75,6.75 h 17.24998 c 3.31407,0 6,-2.68594 6,-6.00001 0,-2.90156 -2.0625,-5.32499 -4.8,-5.87812 z"
       inkscape:connector-curvature="0"
       style="stroke-width:0.046875" />
    <g
       id="g4815"
       transform="matrix(0.69946947,0,0,0.69946947,232.46021,-186.68698)">
      <path
         sodipodi:nodetypes="cccc"
         inkscape:connector-curvature="0"
         id="path4557"
         d="m -90,463.75 -5.000001,12.92683 c -6.999999,18.09757 17.000002,18.09757 10.000003,0 z"
         style="fill:#000000;fill-opacity:1;stroke:#000000;stroke-width:0.30082121px;stroke-linecap:butt;stroke-linejoin:miter;stroke-opacity:1" />
      <path
         sodipodi:nodetypes="cccc"
         inkscape:connector-curvature="0"
         id="path4557-6"
         d="m -75,463.75 -5.000001,12.92683 c -7,18.09757 17.000002,18.09757 10.000003,0 z"
         style="fill:#000000;fill-opacity:1;stroke:#000000;stroke-width:0.30082121px;stroke-linecap:butt;stroke-linejoin:miter;stroke-opacity:1" />
      <path
         sodipodi:nodetypes="cccc"
         inkscape:connector-curvature="0"
         id="path4557-2"
         d="M -59.999999,463.75 -65,476.67683 c -7,18.09757 17.000001,18.09757 10.000001,0 z"
         style="fill:#000000;fill-opacity:1;stroke:#000000;stroke-width:0.30082121px;stroke-linecap:butt;stroke-linejoin:miter;stroke-opacity:1" />
    </g>
    <path
       id="path4817"
       d="m 157.43624,171.75123 h -6.30946 l 2.32914,-7.09678 c 0.2187,-0.83106 -0.41006,-1.65118 -1.26845,-1.65118 h -7.87317 c -0.65609,0 -1.21378,0.48661 -1.30126,1.13724 l -1.74959,13.12193 c -0.10388,0.78732 0.50848,1.48716 1.30126,1.48716 h 6.48989 l -2.5205,10.63424 c -0.19683,0.83105 0.4374,1.6129 1.27392,1.6129 0.45927,0 0.89666,-0.24057 1.13723,-0.6561 l 9.62276,-16.62112 c 0.50848,-0.86933 -0.12028,-1.96829 -1.13177,-1.96829 z"
       inkscape:connector-curvature="0"
       style="stroke-width:0.05467474" />
    <path
       style="fill:none;stroke:#000000;stroke-width:2;stroke-linecap:butt;stroke-linejoin:miter;stroke-miterlimit:4;stroke-dasharray:none;stroke-opacity:1"
       d="m 114.94271,112.1317 70.11458,69.73661"
       id="path4828"
       inkscape:connector-curvature="0" />
    <path
       style="fill:none;stroke:#000000;stroke-width:2;stroke-linecap:butt;stroke-linejoin:miter;stroke-miterlimit:4;stroke-dasharray:none;stroke-opacity:1"
       d="M 115.13169,182.0573 184.8683,111.94272"
       id="path4828-7"
       inkscape:connector-curvature="0" />
    <g
       id="g842"
       transform="translate(-10.000001,34.802552)">
      <rect
         ry="7.3397598"
         y="202.19745"
         x="88.906242"
         height="29.802555"
         width="56.093758"
         id="rect4845"
         style="fill:none;fill-opacity:1;stroke:#000000;stroke-width:2.99335194;stroke-linejoin:miter;stroke-miterlimit:4;stroke-dasharray:none;stroke-opacity:1" />
      <text
         id="text4849"
         y="221.95236"
         x="95.350479"
         style="font-style:normal;font-variant:normal;font-weight:normal;font-stretch:normal;font-size:16.45300674px;line-height:1.25;font-family:'Digital Numbers';-inkscape-font-specification:'Digital Numbers';letter-spacing:0px;word-spacing:0px;fill:#000000;fill-opacity:1;stroke:none;stroke-width:0.41132516"
         xml:space="preserve"><tspan
           style="stroke-width:0.41132516"
           y="221.95236"
           x="95.350479"
           id="tspan4847"
           sodipodi:role="line">23C</tspan></text>
    </g>
    <g
       id="g837"
       transform="translate(9.9999984,34.802552)">
      <path
         style="stroke-width:0.0281469"
         inkscape:connector-curvature="0"
         d="m 177.92382,222.17941 c 0.51954,0.90049 -0.13264,2.02619 -1.17024,2.02619 h -13.50732 c -1.03964,0 -1.68875,-1.12744 -1.17025,-2.02619 l 6.75372,-11.7099 c 0.51979,-0.90096 1.82169,-0.89932 2.34055,0 z M 170,219.7584 c -0.71508,0 -1.29475,0.57967 -1.29475,1.29477 0,0.71506 0.57967,1.29471 1.29475,1.29471 0.71508,0 1.29477,-0.57965 1.29477,-1.29471 0,-0.7151 -0.57969,-1.29477 -1.29477,-1.29477 z m -1.22926,-4.65401 0.20879,3.828 c 0.01,0.17913 0.15788,0.31938 0.33725,0.31938 h 1.36644 c 0.17937,0 0.32748,-0.14025 0.33726,-0.31938 l 0.20879,-3.828 c 0.0111,-0.19348 -0.14347,-0.35616 -0.33727,-0.35616 h -1.78403 c -0.19377,0 -0.34778,0.16268 -0.33723,0.35616 z"
         id="path4734" />
      <path
         style="stroke-width:0.03540966"
         inkscape:connector-curvature="0"
         d="m 200.96588,208.00336 h -7.93176 c -0.93836,0 -1.69966,0.76131 -1.69966,1.69967 v 14.73042 c 0,0.93835 0.7613,1.69966 1.69966,1.69966 h 7.93176 c 0.93836,0 1.69966,-0.76131 1.69966,-1.69966 v -14.73042 c 0,-0.93836 -0.7613,-1.69967 -1.69966,-1.69967 z M 197,225 c -0.62675,0 -1.13311,-0.50635 -1.13311,-1.13311 0,-0.62675 0.50636,-1.13311 1.13311,-1.13311 0.62675,0 1.13311,0.50636 1.13311,1.13311 0,0.62676 -0.50636,1.13311 -1.13311,1.13311 z m 3.96588,-3.82425 c 0,0.23371 -0.19121,0.42492 -0.42491,0.42492 h -7.08194 c -0.2337,0 -0.42491,-0.19121 -0.42491,-0.42492 v -11.0478 c 0,-0.23371 0.19121,-0.42492 0.42491,-0.42492 h 7.08194 c 0.2337,0 0.42491,0.19121 0.42491,0.42492 z"
         id="path4851" />
      <rect
         ry="7.3397603"
         y="202.19745"
         x="155"
         height="29.802555"
         width="56.093758"
         id="rect4845-0"
         style="fill:none;fill-opacity:1;stroke:#000000;stroke-width:2.99335194;stroke-linejoin:miter;stroke-miterlimit:4;stroke-dasharray:none;stroke-opacity:1" />
      <path
         sodipodi:nodetypes="cccccccc"
         inkscape:connector-curvature="0"
         id="path4877"
         d="m 180.5,217 v 2 h 5 v 2 l 4,-3 -4,-3 v 2 z"
         style="fill:#000000;fill-opacity:1;stroke:#000000;stroke-width:0.26458332px;stroke-linecap:butt;stroke-linejoin:miter;stroke-opacity:1" />
    </g>
    <circle
       style="fill:none;fill-opacity:0.93495935;stroke:#000000;stroke-width:2.81472111;stroke-linejoin:miter;stroke-miterlimit:4;stroke-dasharray:none;stroke-opacity:1"
       id="path844"
       cx="150"
       cy="147"
       r="73.592636" />
    <g
       id="g1132"
       transform="translate(49.999999,-50)">
      <circle
         cx="220"
         cy="37.000004"
         r="8.3155098"
         id="circle852"
         style="fill:#000000;fill-opacity:1;stroke:#000000;stroke-width:0.26458332;stroke-opacity:1" />
      <circle
         style="fill:#000000;fill-opacity:0.10362692;stroke:#000000;stroke-width:0.26458332;stroke-opacity:1"
         cx="140"
         cy="37.000004"
         r="8.3155098"
         id="circle860" />
      <g
         transform="translate(-14.037187,-14.216897)"
         id="g890">
        <g
           id="g873">
          <circle
             cx="94.037186"
             cy="51.2169"
             r="8.3155098"
             id="circle854"
             style="fill:#000000;fill-opacity:0.10362692;stroke:#000000;stroke-width:0.26458332;stroke-opacity:1" />
        </g>
        <path
           inkscape:connector-curvature="0"
           style="fill:#040303;fill-opacity:1;stroke:#000000;stroke-width:0.26458332;stroke-opacity:1"
           d="m 94.037184,59.532409 a 8.3155101,8.3155101 0 0 0 0,-16.63102 4.9521268,8.3155101 0 1 1 0,16.63102 z"
           id="path885" />
      </g>
      <g
         transform="translate(-16.303994,-14.216897)"
         id="g895">
        <g
           id="g870">
          <circle
             cx="116.30399"
             cy="51.2169"
             r="8.3155098"
             id="circle856"
             style="fill:#000000;fill-opacity:0.10362692;stroke:#000000;stroke-width:0.26458332;stroke-opacity:1" />
        </g>
        <path
           inkscape:connector-curvature="0"
           style="fill:#040303;fill-opacity:1;stroke:#000000;stroke-width:0.26458332;stroke-opacity:1"
           d="m 116.30399,59.532409 a 8.3155101,8.3155101 0 0 0 0,-16.63102 z"
           id="path883" />
      </g>
      <g
         transform="translate(-17.652162,-14.216897)"
         id="g900">
        <g
           id="g867">
          <circle
             cx="137.65216"
             cy="51.2169"
             r="8.3155098"
             id="circle858"
             style="fill:#000000;fill-opacity:0.10362692;stroke:#000000;stroke-width:0.26458332;stroke-opacity:1" />
        </g>
        <path
           inkscape:connector-curvature="0"
           style="fill:#040303;fill-opacity:1;stroke:#000000;stroke-width:0.26458332;stroke-opacity:1"
           d="m 137.65216,59.532409 a 8.3155101,8.3155101 0 0 0 0,-16.63102 4.8154166,8.3155101 0 0 0 0,16.63102 z"
           id="path881" />
      </g>
      <g
         transform="translate(-23.054015,-14.216897)"
         id="g905">
        <g
           id="g864">
          <circle
             cx="183.05466"
             cy="51.2169"
             r="8.3155098"
             id="circle862"
             style="fill:#000000;fill-opacity:0.10362692;stroke:#000000;stroke-width:0.26458332;stroke-opacity:1" />
        </g>
        <path
           inkscape:connector-curvature="0"
           style="fill:#040303;fill-opacity:1;stroke:#000000;stroke-width:0.26458332;stroke-opacity:1"
           d="m 183.05466,59.532409 a 8.3155101,8.3155101 0 1 1 0,-16.63102 4.8154166,8.3155101 0 1 1 0,16.63102 z"
           id="path879" />
      </g>
      <g
         transform="translate(-25.321459,-14.216897)"
         id="g910">
        <g
           id="g861">
          <circle
             cx="205.32146"
             cy="51.2169"
             r="8.3155098"
             id="circle864"
             style="fill:#000000;fill-opacity:0.10362692;stroke:#000000;stroke-width:0.26458332;stroke-opacity:1" />
        </g>
        <path
           inkscape:connector-curvature="0"
           style="fill:#040303;fill-opacity:1;stroke:#000000;stroke-width:0.26458332;stroke-opacity:1"
           d="m 205.32146,59.532409 a 8.3155101,8.3155101 0 0 1 0,-16.63102 z"
           id="path877" />
      </g>
      <g
         transform="translate(-27.976034,-14.216897)"
         id="g915">
        <g
           id="g858">
          <circle
             cx="227.97668"
             cy="51.2169"
             r="8.3155098"
             id="circle866"
             style="fill:#000000;fill-opacity:0.10362692;stroke:#000000;stroke-width:0.26458332;stroke-opacity:1" />
        </g>
        <path
           inkscape:connector-curvature="0"
           style="fill:#040303;fill-opacity:1;stroke:#000000;stroke-width:0.26458332;stroke-opacity:1"
           d="m 227.97667,59.532409 a 8.3155101,8.3155101 0 1 1 0,-16.63102 4.9521268,8.3155101 0 0 0 0,16.63102 z"
           id="path870" />
      </g>
    </g>
    <circle
       style="fill:#000000;fill-opacity:1;stroke:#000000;stroke-width:0.26458332;stroke-opacity:1"
       id="circle852-3"
       r="8.3155098"
       cy="77"
       cx="315" />
    <circle
       id="circle860-6"
       r="8.3155098"
       cy="77"
       cx="335"
       style="fill:#000000;fill-opacity:0.10362692;stroke:#000000;stroke-width:0.26458332;stroke-opacity:1" />
    <g
       id="g890-7"
       transform="translate(240.96281,5.7831033)">
      <g
         id="g873-5">
        <circle
           style="fill:#000000;fill-opacity:0.10362692;stroke:#000000;stroke-width:0.26458332;stroke-opacity:1"
           id="circle854-3"
           r="8.3155098"
           cy="51.2169"
           cx="94.037186" />
      </g>
      <path
         id="path885-5"
         d="m 94.037184,59.532409 a 8.3155101,8.3155101 0 0 0 0,-16.63102 4.9521268,8.3155101 0 1 1 0,16.63102 z"
         style="fill:#040303;fill-opacity:1;stroke:#000000;stroke-width:0.26458332;stroke-opacity:1"
         inkscape:connector-curvature="0" />
    </g>
    <g
       id="g895-6"
       transform="translate(218.696,-14.216897)">
      <g
         id="g870-2">
        <circle
           style="fill:#000000;fill-opacity:0.10362692;stroke:#000000;stroke-width:0.26458332;stroke-opacity:1"
           id="circle856-9"
           r="8.3155098"
           cy="51.2169"
           cx="116.30399" />
      </g>
      <path
         id="path883-1"
         d="m 116.30399,59.532409 a 8.3155101,8.3155101 0 0 0 0,-16.63102 z"
         style="fill:#040303;fill-opacity:1;stroke:#000000;stroke-width:0.26458332;stroke-opacity:1"
         inkscape:connector-curvature="0" />
    </g>
    <g
       id="g900-2"
       transform="translate(197.34784,-34.216897)">
      <g
         id="g867-7">
        <circle
           style="fill:#000000;fill-opacity:0.10362692;stroke:#000000;stroke-width:0.26458332;stroke-opacity:1"
           id="circle858-0"
           r="8.3155098"
           cy="51.2169"
           cx="137.65216" />
      </g>
      <path
         id="path881-9"
         d="m 137.65216,59.532409 a 8.3155101,8.3155101 0 0 0 0,-16.63102 4.8154166,8.3155101 0 0 0 0,16.63102 z"
         style="fill:#040303;fill-opacity:1;stroke:#000000;stroke-width:0.26458332;stroke-opacity:1"
         inkscape:connector-curvature="0" />
    </g>
    <g
       id="g905-3"
       transform="translate(131.94598,-34.216896)">
      <g
         id="g864-6">
        <circle
           style="fill:#000000;fill-opacity:0.10362692;stroke:#000000;stroke-width:0.26458332;stroke-opacity:1"
           id="circle862-0"
           r="8.3155098"
           cy="51.2169"
           cx="183.05466" />
      </g>
      <path
         id="path879-6"
         d="m 183.05466,59.532409 a 8.3155101,8.3155101 0 1 1 0,-16.63102 4.8154166,8.3155101 0 1 1 0,16.63102 z"
         style="fill:#040303;fill-opacity:1;stroke:#000000;stroke-width:0.26458332;stroke-opacity:1"
         inkscape:connector-curvature="0" />
    </g>
    <g
       id="g910-2"
       transform="translate(109.67854,-14.216897)">
      <g
         id="g861-6">
        <circle
           style="fill:#000000;fill-opacity:0.10362692;stroke:#000000;stroke-width:0.26458332;stroke-opacity:1"
           id="circle864-1"
           r="8.3155098"
           cy="51.2169"
           cx="205.32146" />
      </g>
      <path
         id="path877-8"
         d="m 205.32146,59.532409 a 8.3155101,8.3155101 0 0 1 0,-16.63102 z"
         style="fill:#040303;fill-opacity:1;stroke:#000000;stroke-width:0.26458332;stroke-opacity:1"
         inkscape:connector-curvature="0" />
    </g>
    <g
       id="g915-7"
       transform="translate(87.023961,5.7831033)">
      <g
         id="g858-9">
        <circle
           style="fill:#000000;fill-opacity:0.10362692;stroke:#000000;stroke-width:0.26458332;stroke-opacity:1"
           id="circle866-2"
           r="8.3155098"
           cy="51.2169"
           cx="227.97668" />
      </g>
      <path
         id="path870-0"
         d="m 227.97667,59.532409 a 8.3155101,8.3155101 0 1 1 0,-16.63102 4.9521268,8.3155101 0 0 0 0,16.63102 z"
         style="fill:#040303;fill-opacity:1;stroke:#000000;stroke-width:0.26458332;stroke-opacity:1"
         inkscape:connector-curvature="0" />
    </g>
    <circle
       style="fill:#000000;fill-opacity:1;stroke:#000000;stroke-width:0.26458332;stroke-opacity:1"
       id="circle852-2"
       r="8.3155098"
       cy="86"
       cx="150" />
    <circle
       id="circle860-3"
       r="8.3155098"
       cy="208"
       cx="150"
       style="fill:#000000;fill-opacity:0.10362692;stroke:#000000;stroke-width:0.26458332;stroke-opacity:1" />
    <g
       id="g890-75"
       transform="translate(11.962813,139.7831)">
      <g
         id="g873-9">
        <circle
           style="fill:#000000;fill-opacity:0.10362692;stroke:#000000;stroke-width:0.26458332;stroke-opacity:1"
           id="circle854-2"
           r="8.3155098"
           cy="51.2169"
           cx="94.037186" />
      </g>
      <path
         id="path885-2"
         d="m 94.037184,59.532409 a 8.3155101,8.3155101 0 0 0 0,-16.63102 4.9521268,8.3155101 0 1 1 0,16.63102 z"
         style="fill:#040303;fill-opacity:1;stroke:#000000;stroke-width:0.26458332;stroke-opacity:1"
         inkscape:connector-curvature="0" />
    </g>
    <g
       id="g895-8"
       transform="translate(-27.303994,95.783102)">
      <g
         id="g870-9">
        <circle
           style="fill:#000000;fill-opacity:0.10362692;stroke:#000000;stroke-width:0.26458332;stroke-opacity:1"
           id="circle856-7"
           r="8.3155098"
           cy="51.2169"
           cx="116.30399" />
      </g>
      <path
         id="path883-3"
         d="m 116.30399,59.532409 a 8.3155101,8.3155101 0 0 0 0,-16.63102 z"
         style="fill:#040303;fill-opacity:1;stroke:#000000;stroke-width:0.26458332;stroke-opacity:1"
         inkscape:connector-curvature="0" />
    </g>
    <g
       id="g900-6"
       transform="translate(-31.652162,51.783103)">
      <g
         id="g867-1">
        <circle
           style="fill:#000000;fill-opacity:0.10362692;stroke:#000000;stroke-width:0.26458332;stroke-opacity:1"
           id="circle858-2"
           r="8.3155098"
           cy="51.2169"
           cx="137.65216" />
      </g>
      <path
         id="path881-93"
         d="m 137.65216,59.532409 a 8.3155101,8.3155101 0 0 0 0,-16.63102 4.8154166,8.3155101 0 0 0 0,16.63102 z"
         style="fill:#040303;fill-opacity:1;stroke:#000000;stroke-width:0.26458332;stroke-opacity:1"
         inkscape:connector-curvature="0" />
    </g>
    <g
       id="g905-1"
       transform="translate(10.945985,51.783103)">
      <g
         id="g864-9">
        <circle
           style="fill:#000000;fill-opacity:0.10362692;stroke:#000000;stroke-width:0.26458332;stroke-opacity:1"
           id="circle862-4"
           r="8.3155098"
           cy="51.2169"
           cx="183.05466" />
      </g>
      <path
         id="path879-7"
         d="m 183.05466,59.532409 a 8.3155101,8.3155101 0 1 1 0,-16.63102 4.8154166,8.3155101 0 1 1 0,16.63102 z"
         style="fill:#040303;fill-opacity:1;stroke:#000000;stroke-width:0.26458332;stroke-opacity:1"
         inkscape:connector-curvature="0" />
    </g>
    <g
       id="g910-8"
       transform="translate(5.678541,95.783102)">
      <g
         id="g861-4">
        <circle
           style="fill:#000000;fill-opacity:0.10362692;stroke:#000000;stroke-width:0.26458332;stroke-opacity:1"
           id="circle864-5"
           r="8.3155098"
           cy="51.2169"
           cx="205.32146" />
      </g>
      <path
         id="path877-0"
         d="m 205.32146,59.532409 a 8.3155101,8.3155101 0 0 1 0,-16.63102 z"
         style="fill:#040303;fill-opacity:1;stroke:#000000;stroke-width:0.26458332;stroke-opacity:1"
         inkscape:connector-curvature="0" />
    </g>
    <g
       id="g915-3"
       transform="translate(-33.976034,139.7831)">
      <g
         id="g858-6">
        <circle
           style="fill:#000000;fill-opacity:0.10362692;stroke:#000000;stroke-width:0.26458332;stroke-opacity:1"
           id="circle866-1"
           r="8.3155098"
           cy="51.2169"
           cx="227.97668" />
      </g>
      <path
         id="path870-06"
         d="m 227.97667,59.532409 a 8.3155101,8.3155101 0 1 1 0,-16.63102 4.9521268,8.3155101 0 0 0 0,16.63102 z"
         style="fill:#040303;fill-opacity:1;stroke:#000000;stroke-width:0.26458332;stroke-opacity:1"
         inkscape:connector-curvature="0" />
    </g>
  </g>
</svg>
