<?xml version="1.0" encoding="UTF-8" standalone="no"?>
<!-- Created with Inkscape (http://www.inkscape.org/) -->

<svg
   xmlns:dc="http://purl.org/dc/elements/1.1/"
   xmlns:cc="http://creativecommons.org/ns#"
   xmlns:rdf="http://www.w3.org/1999/02/22-rdf-syntax-ns#"
   xmlns:svg="http://www.w3.org/2000/svg"
   xmlns="http://www.w3.org/2000/svg"
   xmlns:sodipodi="http://sodipodi.sourceforge.net/DTD/sodipodi-0.dtd"
   xmlns:inkscape="http://www.inkscape.org/namespaces/inkscape"
   width="320mm"
   height="320mm"
   viewBox="0 0 320 320"
   version="1.1"
   id="svg8"
   inkscape:version="0.92.4 (unknown)"
   sodipodi:docname="mockup_A_1.4.2.svg"
   inkscape:export-filename="/home/dog545/Code/Python/SunWeatherStation/Graphic Weather Station/mockup_negtive_A_1.4.2.png"
   inkscape:export-xdpi="400"
   inkscape:export-ydpi="400">
  <defs
     id="defs2" />
  <sodipodi:namedview
     id="base"
     pagecolor="#ffffff"
     bordercolor="#666666"
     borderopacity="1.0"
     inkscape:pageopacity="0.0"
     inkscape:pageshadow="2"
     inkscape:zoom="0.65488917"
     inkscape:cx="574.47442"
     inkscape:cy="652.29487"
     inkscape:document-units="mm"
     inkscape:current-layer="layer1"
     showgrid="true"
     inkscape:snap-center="true"
     inkscape:window-width="2560"
     inkscape:window-height="1049"
     inkscape:window-x="1920"
     inkscape:window-y="0"
     inkscape:window-maximized="1"
     inkscape:snap-object-midpoints="false"
     inkscape:snap-bbox="true"
     inkscape:bbox-nodes="true"
     inkscape:snap-nodes="true"
     inkscape:snap-others="true"
     inkscape:bbox-paths="true"
     inkscape:snap-bbox-edge-midpoints="true">
    <inkscape:grid
       type="xygrid"
       id="grid4518"
       units="mm"
       spacingx="0.99999999"
       spacingy="0.99999999"
       dotted="true" />
    <inkscape:grid
       type="xygrid"
       id="grid4520"
       units="mm"
       spacingx="9.9999999"
       spacingy="9.9999999" />
  </sodipodi:namedview>
  <metadata
     id="metadata5">
    <rdf:RDF>
      <cc:Work
         rdf:about="">
        <dc:format>image/svg+xml</dc:format>
        <dc:type
           rdf:resource="http://purl.org/dc/dcmitype/StillImage" />
        <dc:title></dc:title>
      </cc:Work>
    </rdf:RDF>
  </metadata>
  <g
     inkscape:label="Layer 1"
     inkscape:groupmode="layer"
     id="layer1"
     transform="translate(0,23)">
    <circle
       style="fill:none;fill-opacity:1;stroke:#000000;stroke-width:3.20000005;stroke-miterlimit:4;stroke-dasharray:none;stroke-opacity:1"
       id="path4699"
       cx="160"
       cy="137"
       r="48.387096" />
    <path
       id="path4701"
       d="m 346.18933,133.18934 c 3.4513,0 6.60342,-1.57022 8.69171,-4.1432 0.30893,-0.38061 -0.0279,-0.93667 -0.50535,-0.84576 -5.42871,1.03388 -10.41404,-3.12846 -10.41404,-8.60853 0,-3.1567 1.68985,-6.05951 4.43631,-7.62247 0.42336,-0.24093 0.31688,-0.88278 -0.16417,-0.97164 a 11.283571,11.283571 0 0 0 -2.04446,-0.18707 C 340.01295,110.81067 335,115.81576 335,122 c 0,6.17639 5.00508,11.18934 11.18933,11.18934 z"
       inkscape:connector-curvature="0"
       style="stroke-width:0.04370834" />
    <path
       id="path4712"
       d="m 304.12032,127.93491 -55.38758,-27.66315 19.59321,-58.718553 c 2.63199,-7.953849 -4.91293,-15.498363 -12.80868,-12.807986 L 196.79592,48.337439 169.07287,-7.1059375 c -3.7432,-7.4860225 -14.38793,-7.4860225 -18.13114,0 L 123.27728,48.278948 64.497447,28.686631 C 56.543099,26.054844 48.998286,33.599358 51.688663,41.494715 l 19.593216,58.718565 -55.38748,27.72163 c -7.4864215,3.74302 -7.4864215,14.38724 0,18.13025 l 55.38748,27.66326 -19.593216,58.77694 c -2.631886,7.95385 4.912927,15.49837 12.808784,12.80808 l 58.721243,-19.59241 27.66465,55.38499 c 3.74312,7.48592 14.38784,7.48592 18.13105,0 l 27.66454,-55.38499 58.72126,19.59241 c 7.95435,2.63179 15.49926,-4.91272 12.80878,-12.80808 l -19.59322,-58.71856 55.38749,-27.66315 c 7.60341,-3.8015 7.60341,-14.44572 0.11678,-18.18874 z m -91.18185,61.99365 c -29.18531,29.18381 -76.67702,29.18381 -105.86223,0 -29.185201,-29.18381 -29.185201,-76.67333 0,-105.857043 29.18521,-29.183808 76.67692,-29.183808 105.86223,0 29.18511,29.183713 29.18511,76.673233 0,105.857043 z"
       inkscape:connector-curvature="0"
       style="fill:none;fill-opacity:1;stroke:#000000;stroke-width:3.20000005;stroke-miterlimit:4;stroke-dasharray:none;stroke-opacity:1"
       sodipodi:nodetypes="cccccccccccccccccccccccccccsccc" />
    <path
       id="path4723"
       d="m 143.04367,142.37872 -2.03812,-1.17585 1.56779,-0.42209 c 0.49445,-0.13265 0.78992,-0.6452 0.65726,-1.13966 l -0.2412,-0.89846 c -0.13266,-0.49445 -0.6452,-0.78993 -1.13966,-0.65727 l -4.2692,1.14569 -3.85313,-2.23108 3.8471,-2.22505 4.2692,1.1457 c 0.49446,0.13265 1.007,-0.16281 1.13966,-0.65727 l 0.2412,-0.89846 c 0.13267,-0.49445 -0.16281,-1.00699 -0.65726,-1.13966 l -1.56779,-0.4221 2.03812,-1.17584 c 0.44622,-0.25929 0.59697,-0.82609 0.34371,-1.27231 l -0.93464,-1.61603 c -0.25929,-0.44621 -0.8261,-0.59696 -1.27232,-0.3437 l -2.03812,1.17584 0.42209,-1.56779 c 0.13267,-0.49446 -0.1628,-1.007 -0.65726,-1.13966 l -0.89846,-0.24119 c -0.49445,-0.13265 -1.007,0.1628 -1.13966,0.65725 l -1.14569,4.2692 -3.7868,2.18284 v -4.67321 l 3.23808,-3.23808 c 0.37385,-0.37385 0.37385,-0.98891 0,-1.36276 l -0.68139,-0.68138 c -0.37385,-0.37385 -0.98891,-0.37385 -1.36277,0 l -1.19392,1.1879 v -2.4361 c 0,-0.53063 -0.43416,-0.96478 -0.96479,-0.96478 h -1.92959 c -0.53063,0 -0.96479,0.43415 -0.96479,0.96478 v 2.4361 l -1.1879,-1.1879 c -0.37385,-0.37385 -0.98891,-0.37385 -1.36276,0 l -0.68742,0.68138 c -0.37988,0.37385 -0.37988,0.98891 0,1.36276 l 3.23808,3.23808 v 4.67321 l -3.7868,-2.18284 -1.14569,-4.2692 c -0.13266,-0.49445 -0.6452,-0.78992 -1.13966,-0.65725 l -0.89846,0.24119 c -0.49446,0.13265 -0.78992,0.6452 -0.65727,1.13966 l 0.4221,1.56779 -2.03812,-1.17584 c -0.44622,-0.25929 -1.01303,-0.10253 -1.27232,0.3437 l -0.93464,1.60999 c -0.25929,0.44622 -0.10251,1.01304 0.34371,1.27233 l 2.03812,1.17583 -1.56779,0.42209 c -0.50048,0.13265 -0.79595,0.64521 -0.66329,1.1457 l 0.2412,0.89846 c 0.13266,0.49446 0.6452,0.78992 1.13966,0.65727 l 4.2692,-1.1457 3.8471,2.22505 -3.8471,2.22505 -4.2692,-1.14569 c -0.49446,-0.13265 -1.007,0.16281 -1.13966,0.65726 l -0.2412,0.89846 c -0.13266,0.49447 0.16281,1.00701 0.65726,1.13966 l 1.56779,0.42211 -2.03812,1.18187 c -0.44622,0.25928 -0.59697,0.8261 -0.34371,1.27231 l 0.93464,1.61603 c 0.25929,0.44622 0.82611,0.59695 1.27232,0.3437 l 2.03812,-1.17583 -0.42209,1.56779 c -0.13267,0.49445 0.1628,1.00698 0.65726,1.13964 l 0.89846,0.24121 c 0.49446,0.13265 1.007,-0.16282 1.13966,-0.65727 l 1.14569,-4.26919 3.7868,-2.18285 v 4.67321 l -3.23808,3.23808 c -0.37988,0.37385 -0.37988,0.98891 0,1.36276 l 0.68139,0.68139 c 0.37385,0.37386 0.98891,0.37386 1.36277,0 l 1.18789,-1.18791 v 2.43008 c 0,0.53064 0.43416,0.96479 0.9648,0.96479 h 1.92958 c 0.53063,0 0.96479,-0.43415 0.96479,-0.96479 v -2.4361 l 1.1879,1.1879 c 0.37385,0.37385 0.98891,0.37385 1.36276,0 l 0.68139,-0.68138 c 0.37385,-0.37386 0.37385,-0.98891 0,-1.36278 l -3.21999,-3.23807 v -4.6732 l 3.7868,2.18283 1.14569,4.2692 c 0.13266,0.49446 0.64521,0.78992 1.13966,0.65726 l 0.89846,-0.24119 c 0.49446,-0.13265 0.78993,-0.64521 0.65726,-1.13966 l -0.42209,-1.56779 2.03812,1.17583 c 0.44622,0.25929 1.01303,0.10253 1.27232,-0.3437 l 0.93464,-1.61603 c 0.25929,-0.44017 0.10854,-1.01302 -0.33768,-1.26627 z"
       inkscape:connector-curvature="0"
       style="stroke-width:0.06029942" />
    <path
       id="path4745"
       d="m 170.19999,105.62188 c 0.19219,-0.50156 0.3,-1.05 0.3,-1.62188 0,-2.48437 -2.01563,-4.499999 -4.5,-4.499999 -0.92344,0 -1.78594,0.28125 -2.49844,0.759379 -1.29844,-2.249999 -3.72188,-3.759379 -6.50157,-3.759379 -4.14375,0 -7.5,3.35625 -7.5,7.499999 0,0.12657 0.005,0.25313 0.009,0.37969 -2.625,0.92344 -4.50937,3.42657 -4.50937,6.37032 0,3.72656 3.02344,6.75 6.75,6.75 h 17.24998 c 3.31407,0 6,-2.68594 6,-6.00001 0,-2.90156 -2.0625,-5.32499 -4.8,-5.87812 z"
       inkscape:connector-curvature="0"
       style="stroke-width:0.046875" />
    <g
       id="g4815"
       transform="matrix(0.69946947,0,0,0.69946947,242.46021,-196.68698)">
      <path
         sodipodi:nodetypes="cccc"
         inkscape:connector-curvature="0"
         id="path4557"
         d="m -90,463.75 -5.000001,12.92683 c -6.999999,18.09757 17.000002,18.09757 10.000003,0 z"
         style="fill:#000000;fill-opacity:1;stroke:#000000;stroke-width:0.30082121px;stroke-linecap:butt;stroke-linejoin:miter;stroke-opacity:1" />
      <path
         sodipodi:nodetypes="cccc"
         inkscape:connector-curvature="0"
         id="path4557-6"
         d="m -75,463.75 -5.000001,12.92683 c -7,18.09757 17.000002,18.09757 10.000003,0 z"
         style="fill:#000000;fill-opacity:1;stroke:#000000;stroke-width:0.30082121px;stroke-linecap:butt;stroke-linejoin:miter;stroke-opacity:1" />
      <path
         sodipodi:nodetypes="cccc"
         inkscape:connector-curvature="0"
         id="path4557-2"
         d="M -59.999999,463.75 -65,476.67683 c -7,18.09757 17.000001,18.09757 10.000001,0 z"
         style="fill:#000000;fill-opacity:1;stroke:#000000;stroke-width:0.30082121px;stroke-linecap:butt;stroke-linejoin:miter;stroke-opacity:1" />
    </g>
    <path
       id="path4817"
       d="m 167.43624,161.75123 h -6.30946 l 2.32914,-7.09678 c 0.2187,-0.83106 -0.41006,-1.65118 -1.26845,-1.65118 h -7.87317 c -0.65609,0 -1.21378,0.48661 -1.30126,1.13724 l -1.74959,13.12193 c -0.10388,0.78732 0.50848,1.48716 1.30126,1.48716 h 6.48989 l -2.5205,10.63424 c -0.19683,0.83105 0.4374,1.6129 1.27392,1.6129 0.45927,0 0.89666,-0.24057 1.13723,-0.6561 l 9.62276,-16.62112 c 0.50848,-0.86933 -0.12028,-1.96829 -1.13177,-1.96829 z"
       inkscape:connector-curvature="0"
       style="stroke-width:0.05467474" />
    <path
       style="fill:none;stroke:#000000;stroke-width:2;stroke-linecap:butt;stroke-linejoin:miter;stroke-miterlimit:4;stroke-dasharray:none;stroke-opacity:1"
       d="m 124.94271,102.1317 70.11458,69.73661"
       id="path4828"
       inkscape:connector-curvature="0" />
    <path
       style="fill:none;stroke:#000000;stroke-width:2;stroke-linecap:butt;stroke-linejoin:miter;stroke-miterlimit:4;stroke-dasharray:none;stroke-opacity:1"
       d="M 125.13169,172.0573 194.8683,101.94272"
       id="path4828-7"
       inkscape:connector-curvature="0" />
    <g
       id="g842"
       transform="translate(290,-20.197439)">
      <rect
         ry="7.3397598"
         y="202.19745"
         x="88.906242"
         height="29.802555"
         width="56.093758"
         id="rect4845"
         style="fill:none;fill-opacity:1;stroke:#000000;stroke-width:2.99335194;stroke-linejoin:miter;stroke-miterlimit:4;stroke-dasharray:none;stroke-opacity:1" />
      <text
         id="text4849"
         y="221.95236"
         x="95.350479"
         style="font-style:normal;font-variant:normal;font-weight:normal;font-stretch:normal;font-size:16.45300674px;line-height:1.25;font-family:'Digital Numbers';-inkscape-font-specification:'Digital Numbers';letter-spacing:0px;word-spacing:0px;fill:#000000;fill-opacity:1;stroke:none;stroke-width:0.41132516"
         xml:space="preserve"><tspan
           style="stroke-width:0.41132516"
           y="221.95236"
           x="95.350479"
           id="tspan4847"
           sodipodi:role="line">23C</tspan></text>
    </g>
    <g
       id="g837"
       transform="translate(218.90625,-65.197438)">
      <path
         style="stroke-width:0.0281469"
         inkscape:connector-curvature="0"
         d="m 177.92382,222.17941 c 0.51954,0.90049 -0.13264,2.02619 -1.17024,2.02619 h -13.50732 c -1.03964,0 -1.68875,-1.12744 -1.17025,-2.02619 l 6.75372,-11.7099 c 0.51979,-0.90096 1.82169,-0.89932 2.34055,0 z M 170,219.7584 c -0.71508,0 -1.29475,0.57967 -1.29475,1.29477 0,0.71506 0.57967,1.29471 1.29475,1.29471 0.71508,0 1.29477,-0.57965 1.29477,-1.29471 0,-0.7151 -0.57969,-1.29477 -1.29477,-1.29477 z m -1.22926,-4.65401 0.20879,3.828 c 0.01,0.17913 0.15788,0.31938 0.33725,0.31938 h 1.36644 c 0.17937,0 0.32748,-0.14025 0.33726,-0.31938 l 0.20879,-3.828 c 0.0111,-0.19348 -0.14347,-0.35616 -0.33727,-0.35616 h -1.78403 c -0.19377,0 -0.34778,0.16268 -0.33723,0.35616 z"
         id="path4734" />
      <path
         style="stroke-width:0.03540966"
         inkscape:connector-curvature="0"
         d="m 200.96588,208.00336 h -7.93176 c -0.93836,0 -1.69966,0.76131 -1.69966,1.69967 v 14.73042 c 0,0.93835 0.7613,1.69966 1.69966,1.69966 h 7.93176 c 0.93836,0 1.69966,-0.76131 1.69966,-1.69966 v -14.73042 c 0,-0.93836 -0.7613,-1.69967 -1.69966,-1.69967 z M 197,225 c -0.62675,0 -1.13311,-0.50635 -1.13311,-1.13311 0,-0.62675 0.50636,-1.13311 1.13311,-1.13311 0.62675,0 1.13311,0.50636 1.13311,1.13311 0,0.62676 -0.50636,1.13311 -1.13311,1.13311 z m 3.96588,-3.82425 c 0,0.23371 -0.19121,0.42492 -0.42491,0.42492 h -7.08194 c -0.2337,0 -0.42491,-0.19121 -0.42491,-0.42492 v -11.0478 c 0,-0.23371 0.19121,-0.42492 0.42491,-0.42492 h 7.08194 c 0.2337,0 0.42491,0.19121 0.42491,0.42492 z"
         id="path4851" />
      <rect
         ry="7.3397603"
         y="202.19745"
         x="155"
         height="29.802555"
         width="56.093758"
         id="rect4845-0"
         style="fill:none;fill-opacity:1;stroke:#000000;stroke-width:2.99335194;stroke-linejoin:miter;stroke-miterlimit:4;stroke-dasharray:none;stroke-opacity:1" />
      <path
         sodipodi:nodetypes="cccccccc"
         inkscape:connector-curvature="0"
         id="path4877"
         d="m 180.5,217 v 2 h 5 v 2 l 4,-3 -4,-3 v 2 z"
         style="fill:#000000;fill-opacity:1;stroke:#000000;stroke-width:0.26458332px;stroke-linecap:butt;stroke-linejoin:miter;stroke-opacity:1" />
    </g>
    <g
       id="g1132"
       transform="translate(266.55219,-39.999999)">
      <circle
         cx="220"
         cy="37.000004"
         r="8.3155098"
         id="circle852"
         style="fill:#000000;fill-opacity:1;stroke:#000000;stroke-width:0.26458332;stroke-opacity:1" />
      <circle
         style="fill:#000000;fill-opacity:0.10362692;stroke:#000000;stroke-width:0.26458332;stroke-opacity:1"
         cx="140"
         cy="37.000004"
         r="8.3155098"
         id="circle860" />
      <g
         transform="translate(-14.037187,-14.216897)"
         id="g890">
        <g
           id="g873">
          <circle
             cx="94.037186"
             cy="51.2169"
             r="8.3155098"
             id="circle854"
             style="fill:#000000;fill-opacity:0.10362692;stroke:#000000;stroke-width:0.26458332;stroke-opacity:1" />
        </g>
        <path
           inkscape:connector-curvature="0"
           style="fill:#040303;fill-opacity:1;stroke:#000000;stroke-width:0.26458332;stroke-opacity:1"
           d="m 94.037184,59.532409 a 8.3155101,8.3155101 0 0 0 0,-16.63102 4.9521268,8.3155101 0 1 1 0,16.63102 z"
           id="path885" />
      </g>
      <g
         transform="translate(-16.303994,-14.216897)"
         id="g895">
        <g
           id="g870">
          <circle
             cx="116.30399"
             cy="51.2169"
             r="8.3155098"
             id="circle856"
             style="fill:#000000;fill-opacity:0.10362692;stroke:#000000;stroke-width:0.26458332;stroke-opacity:1" />
        </g>
        <path
           inkscape:connector-curvature="0"
           style="fill:#040303;fill-opacity:1;stroke:#000000;stroke-width:0.26458332;stroke-opacity:1"
           d="m 116.30399,59.532409 a 8.3155101,8.3155101 0 0 0 0,-16.63102 z"
           id="path883" />
      </g>
      <g
         transform="translate(-17.652162,-14.216897)"
         id="g900">
        <g
           id="g867">
          <circle
             cx="137.65216"
             cy="51.2169"
             r="8.3155098"
             id="circle858"
             style="fill:#000000;fill-opacity:0.10362692;stroke:#000000;stroke-width:0.26458332;stroke-opacity:1" />
        </g>
        <path
           inkscape:connector-curvature="0"
           style="fill:#040303;fill-opacity:1;stroke:#000000;stroke-width:0.26458332;stroke-opacity:1"
           d="m 137.65216,59.532409 a 8.3155101,8.3155101 0 0 0 0,-16.63102 4.8154166,8.3155101 0 0 0 0,16.63102 z"
           id="path881" />
      </g>
      <g
         transform="translate(-23.054015,-14.216897)"
         id="g905">
        <g
           id="g864">
          <circle
             cx="183.05466"
             cy="51.2169"
             r="8.3155098"
             id="circle862"
             style="fill:#000000;fill-opacity:0.10362692;stroke:#000000;stroke-width:0.26458332;stroke-opacity:1" />
        </g>
        <path
           inkscape:connector-curvature="0"
           style="fill:#040303;fill-opacity:1;stroke:#000000;stroke-width:0.26458332;stroke-opacity:1"
           d="m 183.05466,59.532409 a 8.3155101,8.3155101 0 1 1 0,-16.63102 4.8154166,8.3155101 0 1 1 0,16.63102 z"
           id="path879" />
      </g>
      <g
         transform="translate(-25.321459,-14.216897)"
         id="g910">
        <g
           id="g861">
          <circle
             cx="205.32146"
             cy="51.2169"
             r="8.3155098"
             id="circle864"
             style="fill:#000000;fill-opacity:0.10362692;stroke:#000000;stroke-width:0.26458332;stroke-opacity:1" />
        </g>
        <path
           inkscape:connector-curvature="0"
           style="fill:#040303;fill-opacity:1;stroke:#000000;stroke-width:0.26458332;stroke-opacity:1"
           d="m 205.32146,59.532409 a 8.3155101,8.3155101 0 0 1 0,-16.63102 z"
           id="path877" />
      </g>
      <g
         transform="translate(-27.976034,-14.216897)"
         id="g915">
        <g
           id="g858">
          <circle
             cx="227.97668"
             cy="51.2169"
             r="8.3155098"
             id="circle866"
             style="fill:#000000;fill-opacity:0.10362692;stroke:#000000;stroke-width:0.26458332;stroke-opacity:1" />
        </g>
        <path
           inkscape:connector-curvature="0"
           style="fill:#040303;fill-opacity:1;stroke:#000000;stroke-width:0.26458332;stroke-opacity:1"
           d="m 227.97667,59.532409 a 8.3155101,8.3155101 0 1 1 0,-16.63102 4.9521268,8.3155101 0 0 0 0,16.63102 z"
           id="path870" />
      </g>
    </g>
    <g
       id="g1324"
       transform="translate(64.999996,6.6844996)">
      <circle
         cx="315"
         cy="77"
         r="8.3155098"
         id="circle852-3"
         style="fill:#000000;fill-opacity:1;stroke:#000000;stroke-width:0.26458332;stroke-opacity:1" />
      <circle
         style="fill:#000000;fill-opacity:0.10362692;stroke:#000000;stroke-width:0.26458332;stroke-opacity:1"
         cx="335"
         cy="77"
         r="8.3155098"
         id="circle860-6" />
      <g
         transform="translate(240.96281,5.7831033)"
         id="g890-7">
        <g
           id="g873-5">
          <circle
             cx="94.037186"
             cy="51.2169"
             r="8.3155098"
             id="circle854-3"
             style="fill:#000000;fill-opacity:0.10362692;stroke:#000000;stroke-width:0.26458332;stroke-opacity:1" />
        </g>
        <path
           inkscape:connector-curvature="0"
           style="fill:#040303;fill-opacity:1;stroke:#000000;stroke-width:0.26458332;stroke-opacity:1"
           d="m 94.037184,59.532409 a 8.3155101,8.3155101 0 0 0 0,-16.63102 4.9521268,8.3155101 0 1 1 0,16.63102 z"
           id="path885-5" />
      </g>
      <g
         transform="translate(218.696,-14.216897)"
         id="g895-6">
        <g
           id="g870-2">
          <circle
             cx="116.30399"
             cy="51.2169"
             r="8.3155098"
             id="circle856-9"
             style="fill:#000000;fill-opacity:0.10362692;stroke:#000000;stroke-width:0.26458332;stroke-opacity:1" />
        </g>
        <path
           inkscape:connector-curvature="0"
           style="fill:#040303;fill-opacity:1;stroke:#000000;stroke-width:0.26458332;stroke-opacity:1"
           d="m 116.30399,59.532409 a 8.3155101,8.3155101 0 0 0 0,-16.63102 z"
           id="path883-1" />
      </g>
      <g
         transform="translate(197.34784,-34.216897)"
         id="g900-2">
        <g
           id="g867-7">
          <circle
             cx="137.65216"
             cy="51.2169"
             r="8.3155098"
             id="circle858-0"
             style="fill:#000000;fill-opacity:0.10362692;stroke:#000000;stroke-width:0.26458332;stroke-opacity:1" />
        </g>
        <path
           inkscape:connector-curvature="0"
           style="fill:#040303;fill-opacity:1;stroke:#000000;stroke-width:0.26458332;stroke-opacity:1"
           d="m 137.65216,59.532409 a 8.3155101,8.3155101 0 0 0 0,-16.63102 4.8154166,8.3155101 0 0 0 0,16.63102 z"
           id="path881-9" />
      </g>
      <g
         transform="translate(131.94598,-34.216896)"
         id="g905-3">
        <g
           id="g864-6">
          <circle
             cx="183.05466"
             cy="51.2169"
             r="8.3155098"
             id="circle862-0"
             style="fill:#000000;fill-opacity:0.10362692;stroke:#000000;stroke-width:0.26458332;stroke-opacity:1" />
        </g>
        <path
           inkscape:connector-curvature="0"
           style="fill:#040303;fill-opacity:1;stroke:#000000;stroke-width:0.26458332;stroke-opacity:1"
           d="m 183.05466,59.532409 a 8.3155101,8.3155101 0 1 1 0,-16.63102 4.8154166,8.3155101 0 1 1 0,16.63102 z"
           id="path879-6" />
      </g>
      <g
         transform="translate(109.67854,-14.216897)"
         id="g910-2">
        <g
           id="g861-6">
          <circle
             cx="205.32146"
             cy="51.2169"
             r="8.3155098"
             id="circle864-1"
             style="fill:#000000;fill-opacity:0.10362692;stroke:#000000;stroke-width:0.26458332;stroke-opacity:1" />
        </g>
        <path
           inkscape:connector-curvature="0"
           style="fill:#040303;fill-opacity:1;stroke:#000000;stroke-width:0.26458332;stroke-opacity:1"
           d="m 205.32146,59.532409 a 8.3155101,8.3155101 0 0 1 0,-16.63102 z"
           id="path877-8" />
      </g>
      <g
         transform="translate(87.023961,5.7831033)"
         id="g915-7">
        <g
           id="g858-9">
          <circle
             cx="227.97668"
             cy="51.2169"
             r="8.3155098"
             id="circle866-2"
             style="fill:#000000;fill-opacity:0.10362692;stroke:#000000;stroke-width:0.26458332;stroke-opacity:1" />
        </g>
        <path
           inkscape:connector-curvature="0"
           style="fill:#040303;fill-opacity:1;stroke:#000000;stroke-width:0.26458332;stroke-opacity:1"
           d="m 227.97667,59.532409 a 8.3155101,8.3155101 0 1 1 0,-16.63102 4.9521268,8.3155101 0 0 0 0,16.63102 z"
           id="path870-0" />
      </g>
    </g>
    <circle
       style="fill:#000000;fill-opacity:1;stroke:#000000;stroke-width:0.26458332;stroke-opacity:1"
       id="circle852-2"
       r="8.3155098"
       cy="76"
       cx="160" />
    <circle
       id="circle860-3"
       r="8.3155098"
       cy="198"
       cx="160"
       style="fill:none;fill-opacity:0.10362692;stroke:#000000;stroke-width:0.26458332;stroke-opacity:1" />
    <g
       id="g890-75"
       transform="translate(21.96282,129.7831)">
      <g
         id="g873-9">
        <circle
           style="fill:none;fill-opacity:0.10362692;stroke:#000000;stroke-width:0.26458332;stroke-opacity:1"
           id="circle854-2"
           r="8.3155098"
           cy="51.2169"
           cx="94.037186" />
      </g>
      <path
         id="path885-2"
         d="m 94.037184,59.532409 a 8.3155101,8.3155101 0 0 0 0,-16.63102 4.9521268,8.3155101 0 1 1 0,16.63102 z"
         style="fill:#000000;fill-opacity:1;stroke:#000000;stroke-width:0.26458332;stroke-opacity:1"
         inkscape:connector-curvature="0" />
    </g>
    <g
       id="g895-8"
       transform="translate(-17.303987,85.783103)">
      <g
         id="g870-9">
        <circle
           style="fill:none;fill-opacity:0.10362692;stroke:#000000;stroke-width:0.26458332;stroke-opacity:1"
           id="circle856-7"
           r="8.3155098"
           cy="51.2169"
           cx="116.30399" />
      </g>
      <path
         id="path883-3"
         d="m 116.30399,59.532409 c 4.59203,-7.12e-4 8.31422,-3.723484 8.31422,-8.31551 0,-4.592026 -3.72219,-8.314798 -8.31422,-8.31551 z"
         style="fill:#000000;fill-opacity:1;stroke:#000000;stroke-width:0.26458332;stroke-opacity:1"
         inkscape:connector-curvature="0"
         sodipodi:nodetypes="cscc" />
    </g>
    <g
       id="g900-6"
       transform="translate(-21.652155,41.783104)">
      <g
         id="g867-1">
        <circle
           style="fill:none;fill-opacity:0.10362692;stroke:#000000;stroke-width:0.26458332;stroke-opacity:1"
           id="circle858-2"
           r="8.3155098"
           cy="51.2169"
           cx="137.65216" />
      </g>
      <path
         id="path881-93"
         d="m 137.65216,59.532409 a 8.3155101,8.3155101 0 0 0 0,-16.63102 4.8154166,8.3155101 0 0 0 0,16.63102 z"
         style="fill:#000000;fill-opacity:1;stroke:#000000;stroke-width:0.26458332;stroke-opacity:1"
         inkscape:connector-curvature="0" />
    </g>
    <g
       id="g905-1"
       transform="translate(20.945992,41.783104)">
      <g
         id="g864-9">
        <circle
           style="fill:none;fill-opacity:0;stroke:#000000;stroke-width:0.26458332;stroke-opacity:1"
           id="circle862-4"
           r="8.3155098"
           cy="51.2169"
           cx="183.05466" />
      </g>
      <path
         id="path879-7"
         d="m 183.05466,59.532409 a 8.3155101,8.3155101 0 1 1 0,-16.63102 4.8154166,8.3155101 0 1 1 0,16.63102 z"
         style="fill:#000000;fill-opacity:1;stroke:#000000;stroke-width:0.26458332;stroke-opacity:1"
         inkscape:connector-curvature="0" />
    </g>
    <g
       id="g910-8"
       transform="translate(15.678548,85.783103)">
      <g
         id="g861-4">
        <circle
           style="fill:none;fill-opacity:0.10362692;stroke:#000000;stroke-width:0.26458332;stroke-opacity:1"
           id="circle864-5"
           r="8.3155098"
           cy="51.2169"
           cx="205.32146" />
      </g>
      <path
         id="path877-0"
         d="m 205.32146,59.532409 a 8.3155101,8.3155101 0 0 1 0,-16.63102 z"
         style="fill:#000000;fill-opacity:1;stroke:#000000;stroke-width:0.26458332;stroke-opacity:1"
         inkscape:connector-curvature="0" />
    </g>
    <g
       id="g915-3"
       transform="translate(-23.976027,129.7831)">
      <g
         id="g858-6">
        <circle
           style="fill:none;fill-opacity:0.10362692;stroke:#000000;stroke-width:0.26458332;stroke-opacity:1"
           id="circle866-1"
           r="8.3155098"
           cy="51.2169"
           cx="227.97668" />
      </g>
      <path
         id="path870-06"
         d="m 227.97667,59.532409 a 8.3155101,8.3155101 0 1 1 0,-16.63102 4.9521268,8.3155101 0 0 0 0,16.63102 z"
         style="fill:#000000;fill-opacity:1;stroke:#000000;stroke-width:0.26458332;stroke-opacity:1"
         inkscape:connector-curvature="0" />
    </g>
    <path
       style="fill:none;stroke:#000000;stroke-width:3;stroke-linecap:butt;stroke-linejoin:miter;stroke-opacity:1;stroke-miterlimit:4;stroke-dasharray:none"
       d="m 178.75149,182.2701 9.94977,24.02087"
       id="path915"
       inkscape:connector-curvature="0"
       inkscape:transform-center-x="-23.726377"
       inkscape:transform-center-y="57.280533" />
    <path
       style="fill:none;stroke:#000000;stroke-width:3;stroke-linecap:butt;stroke-linejoin:miter;stroke-opacity:1;stroke-miterlimit:4;stroke-dasharray:none"
       d="m 141.24851,182.2701 -9.94977,24.02088"
       id="path915-3"
       inkscape:connector-curvature="0"
       inkscape:transform-center-x="23.726373"
       inkscape:transform-center-y="57.280538" />
    <path
       style="fill:none;stroke:#000000;stroke-width:3;stroke-linecap:butt;stroke-linejoin:miter;stroke-opacity:1;stroke-miterlimit:4;stroke-dasharray:none"
       d="m 114.7299,155.7515 -24.020879,9.94976"
       id="path915-6"
       inkscape:connector-curvature="0"
       inkscape:transform-center-x="57.280537"
       inkscape:transform-center-y="23.726378" />
    <path
       style="fill:none;stroke:#000000;stroke-width:3;stroke-linecap:butt;stroke-linejoin:miter;stroke-opacity:1;stroke-miterlimit:4;stroke-dasharray:none"
       d="M 114.72989,118.24852 90.709024,108.29874"
       id="path915-7"
       inkscape:connector-curvature="0"
       inkscape:transform-center-x="57.28054"
       inkscape:transform-center-y="-23.726372" />
    <path
       style="fill:none;stroke:#000000;stroke-width:3;stroke-linecap:butt;stroke-linejoin:miter;stroke-opacity:1;stroke-miterlimit:4;stroke-dasharray:none"
       d="M 141.2485,91.7299 131.29873,67.709027"
       id="path915-5"
       inkscape:connector-curvature="0"
       inkscape:transform-center-x="23.726382"
       inkscape:transform-center-y="-57.280538" />
    <path
       style="fill:none;stroke:#000000;stroke-width:3;stroke-linecap:butt;stroke-linejoin:miter;stroke-opacity:1;stroke-miterlimit:4;stroke-dasharray:none"
       d="m 178.75148,91.729895 9.94977,-24.020873"
       id="path915-35"
       inkscape:connector-curvature="0"
       inkscape:transform-center-x="-23.726368"
       inkscape:transform-center-y="-57.280543" />
    <path
       style="fill:none;stroke:#000000;stroke-width:3;stroke-linecap:butt;stroke-linejoin:miter;stroke-opacity:1;stroke-miterlimit:4;stroke-dasharray:none"
       d="m 205.27009,155.75149 24.02088,9.94977"
       id="path915-62"
       inkscape:connector-curvature="0"
       inkscape:transform-center-x="-57.280532"
       inkscape:transform-center-y="23.726373" />
    <path
       style="fill:none;stroke:#000000;stroke-width:3;stroke-linecap:butt;stroke-linejoin:miter;stroke-opacity:1;stroke-miterlimit:4;stroke-dasharray:none"
       d="m 205.27009,118.24852 24.02087,-9.94978"
       id="path915-9"
       inkscape:connector-curvature="0"
       inkscape:transform-center-x="-57.280527"
       inkscape:transform-center-y="-23.726372" />
  </g>
</svg>
