<?xml version="1.0" encoding="UTF-8" standalone="no"?>
<!-- Created with Inkscape (http://www.inkscape.org/) -->

<svg
   xmlns:dc="http://purl.org/dc/elements/1.1/"
   xmlns:cc="http://creativecommons.org/ns#"
   xmlns:rdf="http://www.w3.org/1999/02/22-rdf-syntax-ns#"
   xmlns:svg="http://www.w3.org/2000/svg"
   xmlns="http://www.w3.org/2000/svg"
   xmlns:sodipodi="http://sodipodi.sourceforge.net/DTD/sodipodi-0.dtd"
   xmlns:inkscape="http://www.inkscape.org/namespaces/inkscape"
   width="200mm"
   height="200mm"
   viewBox="0 0 200 200"
   version="1.1"
   id="svg8"
   inkscape:version="0.92.4 (unknown)"
   sodipodi:docname="mockup_A_1.0.svg">
  <defs
     id="defs2" />
  <sodipodi:namedview
     id="base"
     pagecolor="#ffffff"
     bordercolor="#666666"
     borderopacity="1.0"
     inkscape:pageopacity="0.0"
     inkscape:pageshadow="2"
     inkscape:zoom="1.4"
     inkscape:cx="319.55989"
     inkscape:cy="162.87472"
     inkscape:document-units="mm"
     inkscape:current-layer="layer1"
     showgrid="true"
     inkscape:snap-center="true"
     inkscape:window-width="1366"
     inkscape:window-height="737"
     inkscape:window-x="0"
     inkscape:window-y="0"
     inkscape:window-maximized="1">
    <inkscape:grid
       type="xygrid"
       id="grid4518"
       units="mm"
       spacingx="0.99999999"
       spacingy="0.99999999"
       dotted="true" />
    <inkscape:grid
       type="xygrid"
       id="grid4520"
       units="mm"
       spacingx="9.9999999"
       spacingy="9.9999999" />
  </sodipodi:namedview>
  <metadata
     id="metadata5">
    <rdf:RDF>
      <cc:Work
         rdf:about="">
        <dc:format>image/svg+xml</dc:format>
        <dc:type
           rdf:resource="http://purl.org/dc/dcmitype/StillImage" />
        <dc:title></dc:title>
      </cc:Work>
    </rdf:RDF>
  </metadata>
  <g
     inkscape:label="Layer 1"
     inkscape:groupmode="layer"
     id="layer1"
     transform="translate(0,-97)">
    <path
       id="path4524"
       d="m 60.001227,142.50759 c -5.23072,0 -9.49242,4.2617 -9.49242,9.49241 0,5.23072 4.2617,9.49242 9.49242,9.49242 5.23072,0 9.49242,-4.2617 9.49242,-9.49242 0,-5.23071 -4.2617,-9.49241 -9.49242,-9.49241 z m 24.36388,7.95979 -9.36388,-4.677 3.31246,-9.92749 c 0.44495,-1.34475 -0.83059,-2.6203 -2.16546,-2.16545 l -9.92749,3.31246 -4.68688,-9.37376 c -0.63283,-1.26566 -2.432434,-1.26566 -3.065261,0 l -4.676994,9.36387 -9.937375,-3.31246 c -1.34476,-0.44496 -2.620303,0.83059 -2.165458,2.16546 l 3.312458,9.92748 -9.363875,4.68689 c -1.265656,0.63282 -1.265656,2.43243 0,3.06525 l 9.363875,4.677 -3.312458,9.93737 c -0.444957,1.34476 0.830586,2.62031 2.165458,2.16546 L 53.781714,167 l 4.676993,9.36388 c 0.632828,1.26565 2.43243,1.26565 3.06526,0 L 66.200957,167 l 9.92749,3.31246 c 1.34476,0.44496 2.62031,-0.83058 2.16546,-2.16546 l -3.31246,-9.92748 9.36388,-4.677 c 1.28543,-0.64271 1.28543,-2.44232 0.0198,-3.07514 z m -15.4153,10.48121 c -4.93408,4.93408 -12.963083,4.93408 -17.897163,0 -4.93408,-4.93408 -4.93408,-12.96309 0,-17.89717 4.93408,-4.93408 12.963083,-4.93408 17.897163,0 4.93408,4.93408 4.93408,12.96309 0,17.89717 z"
       inkscape:connector-curvature="0"
       style="stroke-width:0.09887935" />
    <path
       id="path4535"
       d="m 125,193.62225 c 0.47105,-1.22932 0.73529,-2.57353 0.73529,-3.97519 0,-6.08915 -4.94025,-11.02941 -11.02941,-11.02941 -2.26333,0 -4.3773,0.68934 -6.12362,1.86121 -3.18244,-5.5147 -9.122244,-9.21415 -15.935204,-9.21415 -10.156251,0 -18.382354,8.2261 -18.382354,18.38235 0,0.3102 0.01149,0.62041 0.02298,0.93061 -6.433826,2.26333 -11.052392,8.39844 -11.052392,15.61351 0,9.13373 7.410386,16.54412 16.544119,16.54412 h 42.279411 c 8.12271,0 14.70588,-6.58318 14.70588,-14.70588 0,-7.11168 -5.05514,-13.05147 -11.7647,-14.40717 z"
       inkscape:connector-curvature="0"
       style="stroke-width:0.11488971" />
    <path
       id="path4546"
       d="m 142.32355,173.86012 c 6.74265,0 12.9008,-3.06767 16.98062,-8.09439 0.60354,-0.74359 -0.0546,-1.82993 -0.98729,-1.65232 -10.60583,2.01984 -20.34546,-6.11195 -20.34546,-16.81811 0,-6.16712 3.30139,-11.8382 8.66703,-14.8917 0.8271,-0.47067 0.61908,-1.72464 -0.32073,-1.89824 a 22.044221,22.044221 0 0 0 -3.99417,-0.36547 c -12.06653,0 -21.86012,9.77821 -21.86012,21.86011 0,12.06653 9.77822,21.86012 21.86012,21.86012 z"
       inkscape:connector-curvature="0"
       style="stroke-width:0.08539108" />
    <path
       style="fill:#000000;fill-opacity:1;stroke:#000000;stroke-width:0.30082121px;stroke-linecap:butt;stroke-linejoin:miter;stroke-opacity:1"
       d="m 79.999999,248.75 -5.000001,12.92683 c -7,18.09757 17.000003,18.09757 10.000003,0 z"
       id="path4557"
       inkscape:connector-curvature="0"
       sodipodi:nodetypes="cccc" />
    <path
       id="path4564"
       d="m 88.779026,240.62013 -1.37175,-0.79139 1.05519,-0.28409 c 0.33279,-0.0893 0.53165,-0.43425 0.44237,-0.76705 l -0.16233,-0.60471 c -0.0893,-0.33279 -0.43426,-0.53165 -0.76705,-0.44237 l -2.87338,0.77111 -2.59334,-1.50162 2.58929,-1.49757 2.87337,0.77111 c 0.33279,0.0893 0.67776,-0.10958 0.76704,-0.44237 l 0.16234,-0.60471 c 0.0893,-0.33279 -0.10958,-0.67776 -0.44237,-0.76705 l -1.0552,-0.28409 1.37176,-0.7914 c 0.30033,-0.17451 0.40178,-0.556 0.23133,-0.85632 l -0.62905,-1.08767 c -0.17452,-0.30032 -0.55602,-0.40179 -0.85634,-0.23133 l -1.37175,0.7914 0.28409,-1.0552 c 0.0893,-0.33279 -0.10957,-0.67775 -0.44237,-0.76704 l -0.60471,-0.16234 c -0.33279,-0.0893 -0.67776,0.10958 -0.76704,0.44237 l -0.7711,2.87338 -2.5487,1.46915 v -3.14529 l 2.17937,-2.17938 c 0.25163,-0.25162 0.25163,-0.66558 0,-0.91721 l -0.4586,-0.4586 c -0.25162,-0.25162 -0.66558,-0.25162 -0.91721,0 l -0.80356,0.79951 v -1.63961 c 0,-0.35714 -0.29221,-0.64935 -0.64936,-0.64935 h -1.2987 c -0.35714,0 -0.64935,0.29221 -0.64935,0.64935 v 1.63961 l -0.79951,-0.79951 c -0.25162,-0.25162 -0.66558,-0.25162 -0.91721,0 l -0.46266,0.4586 c -0.25568,0.25163 -0.25568,0.66559 0,0.91721 l 2.17938,2.17938 v 3.14529 l -2.5487,-1.46915 -0.7711,-2.87338 c -0.0893,-0.33279 -0.43426,-0.53165 -0.76705,-0.44237 l -0.6047,0.16234 c -0.3328,0.0893 -0.53166,0.43425 -0.44237,0.76704 l 0.28409,1.0552 -1.37176,-0.7914 c -0.30032,-0.17451 -0.68182,-0.069 -0.85633,0.23133 l -0.62906,1.0836 c -0.17451,0.30033 -0.069,0.68183 0.23133,0.85634 l 1.37176,0.79139 -1.0552,0.2841 c -0.33685,0.0893 -0.53571,0.43425 -0.44643,0.7711 l 0.16234,0.60471 c 0.0893,0.33279 0.43426,0.53165 0.76705,0.44237 l 2.87338,-0.77111 2.58928,1.49757 -2.58928,1.49756 -2.87338,-0.7711 c -0.33279,-0.0893 -0.67776,0.10957 -0.76705,0.44236 l -0.16234,0.60471 c -0.0893,0.33279 0.10958,0.67776 0.44237,0.76705 l 1.0552,0.28409 -1.37175,0.79545 c -0.30033,0.17451 -0.40179,0.55601 -0.23134,0.85634 l 0.62906,1.08766 c 0.17452,0.30032 0.55601,0.40178 0.85633,0.23133 l 1.37176,-0.7914 -0.2841,1.0552 c -0.0893,0.33279 0.10958,0.67776 0.44238,0.76704 l 0.60471,0.16234 c 0.33279,0.0893 0.67776,-0.10958 0.76704,-0.44237 l 0.77111,-2.87338 2.5487,-1.46915 v 3.14529 l -2.17939,2.17938 c -0.25568,0.25163 -0.25568,0.66558 0,0.91721 l 0.45861,0.4586 c 0.25162,0.25163 0.66558,0.25163 0.9172,0 l 0.79951,-0.79951 v 1.63555 c 0,0.35714 0.29221,0.64935 0.64936,0.64935 h 1.2987 c 0.35714,0 0.64935,-0.29221 0.64935,-0.64935 v -1.63961 l 0.79951,0.79951 c 0.25162,0.25162 0.66558,0.25162 0.91721,0 l 0.4586,-0.4586 c 0.25162,-0.25162 0.25162,-0.66558 0,-0.91721 l -2.1672,-2.17938 v -3.14529 l 2.5487,1.46916 0.7711,2.87337 c 0.0893,0.33279 0.43425,0.53165 0.76704,0.44237 l 0.60471,-0.16233 c 0.3328,-0.0893 0.53165,-0.43426 0.44237,-0.76705 L 86.149156,242 l 1.37175,0.7914 c 0.30032,0.17451 0.68182,0.069 0.85634,-0.23133 l 0.62905,-1.08766 c 0.17451,-0.29627 0.073,-0.68182 -0.22727,-0.85228 z"
       inkscape:connector-curvature="0"
       style="stroke-width:0.04058439" />
  </g>
</svg>
